%YAML 1.1
%TAG !u! tag:unity3d.com,2011:
--- !u!78 &1
TagManager:
  serializedVersion: 2
  tags:
  - Grabbable
  - Shredder
  - MoneyPile
  layers:
  - Default
  - TransparentFX
  - Ignore Raycast
  - GenuineMoney
  - Water
  - UI
  - DoodleMoney
  - FakeMoney
  - UVLight
  - 
  - 
  - 
  - 
  - 
  - 
  - 
  - 
  - 
  - 
  - 
  - 
  - 
  - 
  - 
  - 
  - 
  - 
  - 
  - 
  - 
  - 
  - 
  m_SortingLayers:
  - name: Default
    uniqueID: 0
    locked: 0
